# -----------------------------------------------------------------------
# [y] hybris Platform
#
# Copyright (c) 2017 SAP SE or an SAP affiliate company.  All rights reserved.
#
# This software is the confidential and proprietary information of SAP
# ("Confidential Information"). You shall not disclose such Confidential
# Information and shall use it only in accordance with the terms of the
# license agreement you entered into with SAP.
# -----------------------------------------------------------------------

uid;passwordEncoding;password;encodedPassword;passwordQuestion;passwordAnswer;groups;loginDisabled;hmcLoginDisabled;is billing address;is contact address;is shipping address;is unloading address;street name;street number;postcode;town;country;gender;dob;company;po box;phone1;phone2;mobile phone;fax;email;title;last name;first name;middle name;department;authorizedToUnlockPages; description;name;standard currency;standard language
testuser;*;testPassWord;testPassWord;what is my name;test answer;importcockpitgroup;false;false;true;true;true;false;some street;23;lon1 1ol;london;uk;male;11/12/1980;some company;444;0049 89 123456;0049 89 123456;0049 89 123456;0049 89 123456;test1@test.com;mr;tester;test;testee;testing;FALSE;test account;New Test user;en;en
