<?xml version="1.0" encoding="utf-8"?>
<!-- Generator: Adobe Illustrator 21.0.0, SVG Export Plug-In . SVG Version: 6.00 Build 0)  -->
<svg version="1.1" id="auto" xmlns="http://www.w3.org/2000/svg" xmlns:xlink="http://www.w3.org/1999/xlink" x="0px" y="0px"
	 width="110px" height="110px" viewBox="0 0 110 110" style="enable-background:new 0 0 110 110;" xml:space="preserve">
<style type="text/css">
	.st0{fill:#3399CC;}
</style>
<g>
	<path class="st0" d="M99.3,39.5c-1.1-3.8-6.6-2.9-9.9-2.1c-0.6-3-2.9-11.6-7.8-15.6c-1-0.8-6.9-4.7-26.1-4.2
		c-0.6,0-5.5-0.1-10.8,0.4c-11,0.6-14.5,2.5-16.2,3.8c-4.8,3.8-7.2,12.6-7.9,15.7c-3.2-0.8-9-1.8-10,2.1c-0.6,2.7,1.4,3.8,3.3,4.4
		c1.2,0.4,2.1,1.8,1.5,3c-0.4,1.7-1.1,3.7-1.1,5.2c0,2.9,0,6.9,0,6.9v11.2c0,1.3,1.1,2.4,2.4,2.4h10.7c1.3,0,2.4-1.1,2.4-2.4
		c0-1.1,0-2.1,0-2.4c0,1,16,2,24.8,2s24.8-1,24.8-2c0,0.4,0,1.3,0,2.4c0,1.3,1.1,2.4,2.4,2.4h10.7c1.3,0,2.4-1.1,2.4-2.4V59
		c0,0,0-3.8,0-6.9c0-1.5-0.4-3.7-1.1-5.2c-0.4-1.2,0.4-2.7,1.5-3C97.8,43.2,100.1,42.2,99.3,39.5z M35,59c-1,2-10.7-2-11.7-3.8
		c-1-2-2.9-4.8-1-4.8S35,54.2,35,54.2C36.3,55.1,36,57.1,35,59z M60.8,31.2c-1.7,1.1-2.3,2.8-2.7,4.1c-0.4,1.1-2.1,1.8-3.1,1.8
		c-1.1,0-2.9-0.6-3.1-1.8c-0.4-1.2-1.1-2.9-2.7-4.1c-2.9-2-11.7-2-15.6,1c-2,1.4-2.4,2.9-2.4,4c0,1.2-0.9,2.1-2,2.3l-1.9,0.4
		c0.6-2.9,2.5-9.5,5.5-11.8c2.4-2,13.7-2.9,22.7-2.7h0.1h0.1c8.6-0.2,19.4,0.8,21.7,2.7c2.7,2.1,4.7,8.1,5.5,11.9h-0.3l-1.8-0.4
		c-1.1-0.2-2-1.2-2-2.3c0-1.1-0.4-2.5-2.4-4C72.5,29.2,63.7,29.2,60.8,31.2z M85.7,55.1c-1,2-10.7,5.8-11.7,3.8c-1-2-1.3-3.8,0-4.8
		c0,0,10.7-3.8,12.7-3.8C88.6,50.3,86.7,53.1,85.7,55.1z"/>
</g>
<g>
	<path class="st0" d="M42,109.8l-1.1-3.1h-4.2l-1.1,3.1h-1.9l4.1-11.1h2l4.1,11.1H42z M40.4,105.2l-1-3c-0.1-0.2-0.2-0.5-0.3-1
		c-0.1-0.4-0.2-0.8-0.3-1c-0.1,0.6-0.3,1.3-0.6,2l-1,2.9L40.4,105.2L40.4,105.2z"/>
	<path class="st0" d="M54,98.8v7.2c0,0.8-0.2,1.5-0.5,2.1s-0.9,1.1-1.5,1.4c-0.7,0.3-1.5,0.5-2.4,0.5c-1.4,0-2.4-0.4-3.2-1.1
		s-1.1-1.7-1.1-3v-7.1h1.8v7c0,0.9,0.2,1.6,0.6,2c0.4,0.4,1.1,0.7,2,0.7c1.7,0,2.6-0.9,2.6-2.7v-7H54z"/>
	<path class="st0" d="M60.7,109.8h-1.8v-9.5h-3.3v-1.6h8.3v1.6h-3.3L60.7,109.8L60.7,109.8z"/>
	<path class="st0" d="M75.4,104.3c0,1.8-0.4,3.2-1.3,4.2s-2.2,1.5-3.8,1.5c-1.7,0-3-0.5-3.8-1.5s-1.3-2.4-1.3-4.2
		c0-1.8,0.4-3.2,1.3-4.2s2.2-1.5,3.9-1.5c1.6,0,2.9,0.5,3.8,1.5C75,101.1,75.4,102.5,75.4,104.3z M67,104.3c0,1.4,0.3,2.4,0.8,3.1
		c0.6,0.7,1.4,1.1,2.4,1.1c1.1,0,1.9-0.3,2.4-1s0.8-1.7,0.8-3.1s-0.3-2.4-0.8-3.1s-1.4-1.1-2.4-1.1c-1.1,0-1.9,0.4-2.5,1.1
		S67,102.9,67,104.3z"/>
</g>
</svg>
