<?xml version="1.0" encoding="utf-8"?>
<!-- Generator: Adobe Illustrator 21.0.0, SVG Export Plug-In . SVG Version: 6.00 Build 0)  -->
<svg version="1.1" id="Layer_2" xmlns="http://www.w3.org/2000/svg" xmlns:xlink="http://www.w3.org/1999/xlink" x="0px" y="0px"
	 width="110px" height="104px" viewBox="0 0 110 104" enable-background="new 0 0 110 104" xml:space="preserve">
<path fill="#263950" d="M52,94c-0.9,0-1.8-0.3-2.4-1c-2.1-2.1-5.5-2.1-7.6,0c-1.3,1.3-3.5,1.3-4.9,0L13.9,69.8
	c-1.3-1.3-1.3-3.5,0-4.9c2.1-2.1,2.1-5.5,0-7.6c-1.3-1.3-1.3-3.5,0-4.9l41.8-41.8c1.3-1.3,3.5-1.3,4.9,0c2.1,2.1,5.5,2.1,7.6,0
	c1.3-1.3,3.5-1.3,4.9,0l23.2,23.2c1.3,1.3,1.3,3.5,0,4.9c-2.1,2.1-2.1,5.5,0,7.6c1.3,1.3,1.3,3.5,0,4.9L54.4,93
	C53.8,93.7,52.9,94,52,94z M20.8,67l19.1,19.1c3.7-2,8.1-2,11.8,0l37.7-37.7c-1-1.8-1.5-3.8-1.5-5.9c0-2.1,0.5-4.1,1.5-5.9l-19.1-19
	c-1.8,1-3.8,1.5-5.9,1.5s-4.1-0.5-5.9-1.5L20.8,55.3C22.8,58.9,22.8,63.4,20.8,67z"/>
<path fill="#263950" d="M45.4,78L28.9,61.5c-2-2-2-5.1,0-7.1l28.8-28.8c2-2,5.1-2,7.1,0l16.5,16.5c2,2,2,5.1,0,7.1L52.4,78
	C50.5,80,47.3,80,45.4,78z M42.8,60.4l20.7-20.7c1-1,1-2.5,0-3.5s-2.5-1-3.5,0L39.3,56.9c-1,1-1,2.5,0,3.5c0.5,0.5,1.1,0.7,1.7,0.7
	S42.3,60.9,42.8,60.4z M54.7,62.6l11-11c1-1,1-2.5,0-3.5s-2.5-1-3.5,0l-11,11c-1,1-1,2.5,0,3.5c0.5,0.5,1.1,0.7,1.7,0.7
	S54.2,63.1,54.7,62.6z"/>
</svg>
