# -----------------------------------------------------------------------
# [y] hybris Platform
#
# Copyright (c) 2017 SAP SE or an SAP affiliate company.  All rights reserved.
#
# This software is the confidential and proprietary information of SAP
# ("Confidential Information"). You shall not disclose such Confidential
# Information and shall use it only in accordance with the terms of the
# license agreement you entered into with SAP.
# -----------------------------------------------------------------------

INSERT_UPDATE CockpitUIConfigurationMedia;code[unique=true];mime;realfilename;@media[translator=de.hybris.platform.impex.jalo.media.MediaDataTranslator][forceWrite=true]
; list_product_printgroup_ui_config;text/xml; ListView_Product_PrintGroup.xml; jar:de.hybris.platform.printsampledata.jalo.PrintsampledataManager&/printsampledata/printcockpit/config/ListView_Product_PrintGroup.xml
; advanced_search_printgroup_ui_config;text/xml; AdvancedSearch_Product_PrintGroup.xml; jar:de.hybris.platform.printsampledata.jalo.PrintsampledataManager&/printsampledata/printcockpit/config/AdvancedSearch_Product_PrintGroup.xml
; advanced_search_variantproduct_printgroup_ui_config;text/xml; AdvancedSearch_VariantProduct_PrintGroup.xml; jar:de.hybris.platform.printsampledata.jalo.PrintsampledataManager&/printsampledata/printcockpit/config/AdvancedSearch_VariantProduct_PrintGroup.xml

INSERT_UPDATE CockpitUIComponentConfiguration;code[unique=true];factoryBean;objectTemplateCode[unique=true];principal(uid)[unique=true];media(code);
;listViewContentBrowser;listViewConfigurationFactory;Product;printgroup;list_product_printgroup_ui_config;
;advancedSearch;advancedSearchConfigurationFactory;Product;printgroup;advanced_search_printgroup_ui_config;
;advancedSearch;advancedSearchConfigurationFactory;VariantProduct;printgroup;advanced_search_variantproduct_printgroup_ui_config;
